[{
        "ParameterKey": "DomainName",
        "ParameterValue": "orderhive-sso"
    },
    {
        "ParameterKey": "FederatedProviderName",
        "ParameterValue": "azuread"
    },
    {
        "ParameterKey": "CallBackURLs",
        "ParameterValue": "http://localhost"
    }
]